<?xml version="1.0" encoding="utf-8"?>
<!-- Generator: Adobe Illustrator 16.0.0, SVG Export Plug-In . SVG Version: 6.00 Build 0)  -->
<!DOCTYPE svg PUBLIC "-//W3C//DTD SVG 1.1//EN" "http://www.w3.org/Graphics/SVG/1.1/DTD/svg11.dtd">
<svg version="1.1" id="Layer_1" xmlns="http://www.w3.org/2000/svg" xmlns:xlink="http://www.w3.org/1999/xlink" x="0px" y="0px"
	 width="80.996px" height="81.801px" viewBox="0 0 80.996 81.801" enable-background="new 0 0 80.996 81.801" xml:space="preserve">
<g>
	<g>
		<path fill="#FFFFFF" d="M53.094,0C37.708,0,25.191,12.642,25.191,28.18c0,6.394,2.121,12.296,5.687,17.03l-5.652,5.707
			c-0.036,0.037-0.068,0.076-0.1,0.114c-0.462-0.098-0.938-0.147-1.422-0.147c-1.845,0-3.581,0.725-4.886,2.043L2.024,69.888
			C0.719,71.206,0,72.958,0,74.823c0,1.863,0.719,3.615,2.024,4.935c1.305,1.319,3.041,2.045,4.886,2.045
			c1.845,0,3.581-0.727,4.887-2.045l16.794-16.961c1.305-1.318,2.024-3.07,2.024-4.935c0-0.487-0.051-0.969-0.147-1.438
			c0.039-0.031,0.076-0.064,0.112-0.101l5.652-5.709c4.687,3.603,10.532,5.744,16.862,5.744c15.385,0,27.902-12.643,27.902-28.181
			S68.479,0,53.094,0z M9.941,77.884c-0.81,0.816-1.886,1.268-3.031,1.268s-2.221-0.45-3.031-1.27
			c-0.81-0.816-1.255-1.902-1.255-3.06c0-1.156,0.446-2.243,1.255-3.061l15.167-15.318l6.061,6.121L9.941,77.884z M26.954,60.683
			l-6.041-6.1c0.801-0.695,1.795-1.047,2.791-1.047c1.098,0,2.196,0.422,3.031,1.266c0.81,0.816,1.255,1.904,1.255,3.061
			C27.991,58.909,27.624,59.897,26.954,60.683z M29.342,53.827c-0.224-0.316-0.473-0.619-0.751-0.9
			c-0.278-0.279-0.578-0.533-0.892-0.758l4.87-4.92c0.525,0.576,1.073,1.129,1.644,1.66L29.342,53.827z M53.094,53.71
			c-13.939,0-25.279-11.453-25.279-25.53S39.155,2.65,53.094,2.65c13.939,0,25.279,11.452,25.279,25.529S67.034,53.71,53.094,53.71z
			 M53.094,5.653c-12.299,0-22.305,10.105-22.305,22.526s10.006,22.526,22.305,22.526S75.398,40.6,75.398,28.179
			S65.393,5.653,53.094,5.653z M53.094,48.056c-10.852,0-19.681-8.916-19.681-19.876s8.83-19.876,19.681-19.876
			c10.852,0,19.682,8.916,19.682,19.876S63.945,48.056,53.094,48.056z"/>
	</g>
</g>
<path fill="#6ABDFF" d="M62.206,14.035c-0.606-0.399-1.42-0.228-1.815,0.387c-0.396,0.612-0.226,1.434,0.383,1.833
	c4.01,2.64,6.404,7.098,6.404,11.925c0,3.298-1.144,6.513-3.22,9.051c-0.461,0.563-0.383,1.399,0.176,1.865
	C64.38,39.3,64.675,39.4,64.971,39.4c0.377,0,0.752-0.164,1.012-0.48c2.463-3.013,3.82-6.825,3.82-10.738
	C69.801,22.453,66.961,17.166,62.206,14.035z"/>
</svg>
