<?xml version="1.0" encoding="utf-8"?>
<!-- Generator: Adobe Illustrator 16.0.0, SVG Export Plug-In . SVG Version: 6.00 Build 0)  -->
<!DOCTYPE svg PUBLIC "-//W3C//DTD SVG 1.1//EN" "http://www.w3.org/Graphics/SVG/1.1/DTD/svg11.dtd">
<svg version="1.1" id="Layer_1" xmlns="http://www.w3.org/2000/svg" xmlns:xlink="http://www.w3.org/1999/xlink" x="0px" y="0px"
	 width="55.17px" height="80.1px" viewBox="0 0 55.17 80.1" enable-background="new 0 0 55.17 80.1" xml:space="preserve">
<path fill="#FFFFFF" d="M48.689,17.656h-9.29c-0.433-1.572-1.02-3.092-1.737-4.5h11.027c3.573,0,6.48-2.951,6.48-6.578
	S52.263,0,48.689,0H6.48C2.907,0,0,2.951,0,6.578s2.907,6.578,6.48,6.578h9.941c3.457,0,6.709,1.715,8.757,4.5H6.48
	c-3.573,0-6.48,2.951-6.48,6.579c0,3.627,2.907,6.578,6.48,6.578h18.716c-2.046,2.785-5.304,4.5-8.774,4.5H6.48
	c-3.573,0-6.48,2.932-6.48,6.535c0,1.824,0.727,3.518,2.047,4.775l27.917,31.314c1.224,1.373,2.976,2.16,4.808,2.16
	c1.606,0,3.15-0.604,4.346-1.703c1.283-1.178,2.038-2.795,2.124-4.549c0.087-1.756-0.505-3.439-1.667-4.744l-18.821-21.08
	c6.885-1.299,12.927-5.672,16.479-12.041c0.348-0.625,0.132-1.416-0.482-1.77c-0.615-0.354-1.396-0.135-1.743,0.49
	c-3.556,6.373-9.888,10.51-16.938,11.063c-0.487,0.039-0.91,0.354-1.09,0.814c-0.181,0.461-0.087,0.984,0.24,1.352l20.459,22.916
	c0.703,0.787,1.062,1.807,1.009,2.869s-0.509,2.041-1.286,2.756c-0.725,0.664-1.658,1.031-2.629,1.031
	c-1.11,0-2.172-0.477-2.911-1.305L3.906,44.841c-0.025-0.029-0.053-0.059-0.081-0.086c-0.817-0.762-1.267-1.795-1.267-2.906
	c0-2.172,1.759-3.938,3.922-3.938h9.941c5.168,0,9.951-3.076,12.188-7.838c0.189-0.402,0.162-0.875-0.072-1.252
	s-0.643-0.605-1.082-0.605H6.48c-2.163,0-3.922-1.785-3.922-3.98c0-2.196,1.759-3.981,3.922-3.981h20.96
	c0.438,0,0.848-0.229,1.081-0.605c0.234-0.379,0.262-0.852,0.072-1.254c-2.243-4.76-7.021-7.834-12.172-7.834H6.48
	c-2.163,0-3.922-1.787-3.922-3.982S4.317,2.596,6.48,2.596h42.209c2.163,0,3.923,1.787,3.923,3.982s-1.76,3.982-3.923,3.982H35.429
	c-0.472,0-0.904,0.262-1.127,0.684c-0.223,0.424-0.198,0.936,0.063,1.334c1.272,1.939,2.239,4.246,2.798,6.672
	c0.135,0.588,0.65,1.004,1.245,1.004h10.282c2.163,0,3.923,1.785,3.923,3.981c0,2.195-1.76,3.98-3.923,3.98h-10.32
	c-0.707,0-1.279,0.582-1.279,1.299s0.572,1.299,1.279,1.299h10.32c3.573,0,6.48-2.951,6.48-6.578
	C55.17,20.607,52.263,17.656,48.689,17.656z"/>
</svg>
