<?xml version="1.0" encoding="utf-8"?>
<!-- Generator: Adobe Illustrator 16.0.0, SVG Export Plug-In . SVG Version: 6.00 Build 0)  -->
<!DOCTYPE svg PUBLIC "-//W3C//DTD SVG 1.1//EN" "http://www.w3.org/Graphics/SVG/1.1/DTD/svg11.dtd">
<svg version="1.1" id="Layer_1" xmlns="http://www.w3.org/2000/svg" xmlns:xlink="http://www.w3.org/1999/xlink" x="0px" y="0px"
	 width="110px" height="59px" viewBox="0 0 110 59" enable-background="new 0 0 110 59" xml:space="preserve">
<g>
	<g>
		<path fill="#FFFFFF" d="M108.799,0H1.201C0.538,0,0,0.537,0,1.2v56.599C0,58.462,0.538,59,1.201,59h99.11
			c0.663,0,1.201-0.538,1.201-1.201c0-0.662-0.538-1.2-1.201-1.2H2.401V2.401h105.197v55.397c0,0.663,0.538,1.201,1.2,1.201
			c0.664,0,1.201-0.538,1.201-1.201V1.2C110,0.537,109.463,0,108.799,0z M49.389,15.893H21.375c-0.663,0-1.201,0.538-1.201,1.201
			c0,0.662,0.538,1.2,1.201,1.2h28.015c0.663,0,1.201-0.538,1.201-1.2C50.59,16.431,50.053,15.893,49.389,15.893z M49.389,28.299
			H21.375c-0.663,0-1.201,0.538-1.201,1.201s0.538,1.2,1.201,1.2h28.015c0.663,0,1.201-0.537,1.201-1.2S50.053,28.299,49.389,28.299
			z M21.375,40.706c-0.663,0-1.201,0.537-1.201,1.2s0.538,1.201,1.201,1.201h28.015c0.663,0,1.201-0.538,1.201-1.201
			s-0.537-1.2-1.201-1.2H21.375z M100.39,15.893H72.375c-0.664,0-1.201,0.538-1.201,1.201c0,0.662,0.537,1.2,1.201,1.2h28.015
			c0.663,0,1.2-0.538,1.2-1.2C101.59,16.431,101.053,15.893,100.39,15.893z M100.39,28.299H72.375c-0.664,0-1.201,0.538-1.201,1.201
			s0.537,1.2,1.201,1.2h28.015c0.663,0,1.2-0.537,1.2-1.2S101.053,28.299,100.39,28.299z M100.39,40.706H72.375
			c-0.664,0-1.201,0.537-1.201,1.2s0.537,1.201,1.201,1.201h28.015c0.663,0,1.2-0.538,1.2-1.201S101.053,40.706,100.39,40.706z"/>
	</g>
</g>
<path fill="#79B9E5" d="M13.17,12.491c-2.538,0-4.603,2.064-4.603,4.603c0,2.537,2.064,4.602,4.603,4.602s4.603-2.064,4.603-4.602
	C17.772,14.556,15.708,12.491,13.17,12.491z M13.17,19.294c-1.213,0-2.201-0.987-2.201-2.2c0-1.214,0.988-2.201,2.201-2.201
	c1.214,0,2.201,0.987,2.201,2.201C15.371,18.307,14.384,19.294,13.17,19.294z"/>
<path fill="#79B9E5" d="M13.17,24.897c-0.663,0-1.201,0.538-1.201,1.201c0,0.662,0.538,1.2,1.201,1.2
	c1.214,0,2.201,0.987,2.201,2.201s-0.987,2.201-2.201,2.201c-1.213,0-2.201-0.987-2.201-2.201c0-0.663-0.538-1.201-1.201-1.201
	c-0.663,0-1.201,0.538-1.201,1.201c0,2.538,2.064,4.603,4.603,4.603s4.603-2.064,4.603-4.603S15.708,24.897,13.17,24.897z"/>
<path fill="#79B9E5" d="M13.17,37.305c-2.538,0-4.603,2.064-4.603,4.602c0,2.538,2.064,4.603,4.603,4.603s4.603-2.064,4.603-4.603
	C17.772,39.369,15.708,37.305,13.17,37.305z M13.17,44.107c-1.213,0-2.201-0.987-2.201-2.201c0-1.213,0.988-2.201,2.201-2.201
	c1.214,0,2.201,0.988,2.201,2.201C15.371,43.12,14.384,44.107,13.17,44.107z"/>
<path fill="#79B9E5" d="M64.17,12.491c-2.538,0-4.603,2.064-4.603,4.603c0,2.537,2.064,4.602,4.603,4.602s4.603-2.064,4.603-4.602
	C68.772,14.556,66.708,12.491,64.17,12.491z M64.17,19.294c-1.213,0-2.201-0.987-2.201-2.2c0-1.214,0.988-2.201,2.201-2.201
	c1.214,0,2.201,0.987,2.201,2.201C66.371,18.307,65.384,19.294,64.17,19.294z"/>
<path fill="#79B9E5" d="M64.17,24.897c-0.663,0-1.201,0.538-1.201,1.201c0,0.662,0.538,1.2,1.201,1.2
	c1.214,0,2.201,0.987,2.201,2.201s-0.987,2.201-2.201,2.201c-1.213,0-2.201-0.987-2.201-2.201c0-0.663-0.537-1.201-1.201-1.201
	c-0.662,0-1.2,0.538-1.2,1.201c0,2.538,2.064,4.603,4.603,4.603s4.603-2.064,4.603-4.603S66.708,24.897,64.17,24.897z"/>
<path fill="#79B9E5" d="M64.17,37.305c-2.538,0-4.603,2.064-4.603,4.602c0,2.538,2.064,4.603,4.603,4.603s4.603-2.064,4.603-4.603
	C68.772,39.369,66.708,37.305,64.17,37.305z M64.17,44.107c-1.213,0-2.201-0.987-2.201-2.201c0-1.213,0.988-2.201,2.201-2.201
	c1.214,0,2.201,0.988,2.201,2.201C66.371,43.12,65.384,44.107,64.17,44.107z"/>
</svg>
